  Thu Jul 20 2017 18:52                                                Page 1


                     ***************************************
                     **      WDC 65C816 Macro Assembler   **
                     **                                   **
                     **     Version Evaluation- Mar 28 2006    **
                     ***************************************

     1                        	chip 65816
     2             0000DF24   PDD4	equ	$DF24
     3             0000DF23   PD7	equ	$DF23
     4             0000DF41   SSCR1	equ	$DF41
     5                        
     6                        
     7                        	longa off
     8                        	longi off
     9                        
    10             00000004   PD72	equ	$04
    11                        
    12                        	org $1000
    13 00:1000: 78           	sei
    14 00:1001: D8           	cld
    15 00:1002: A2 FF        	ldx #$FF
    16 00:1004: 9A           	txs
    17                        
    18 00:1005: 38           	sec
    19 00:1006: FB           	xce
    20                        
    21 00:1007: A9 04        ?loop	lda #PD72
    22 00:1009: 0C 23 DF     	tsb PD7
    23                        
    24 00:100C: 20 19 10     	jsr Delay
    25                        
    26 00:100F: A9 04        	lda #PD72
    27 00:1011: 1C 23 DF     	trb PD7
    28                        
    29 00:1014: 20 19 10     	jsr Delay
    30                        
    31 00:1017: 80 EE        	bra ?loop
    32                        
    33                        
    34                        Delay
    35 00:1019: DA                   phx
    36 00:101A: 5A                   phy
    37 00:101B: A0 00                ldy #$00
    38 00:101D: A2 00        ?L2     ldx #$00
    39 00:101F: E8           ?L1     inx
    40 00:1020: D0 FD                bne ?L1
    41 00:1022: C8                   iny
    42 00:1023: D0 F8                bne ?L2
    43 00:1025: 7A                   ply
    44 00:1026: FA                   plx
    45 00:1027: 60                   rts


      Lines assembled: 45
      Errors: 0
